…
#correlation matrix

anime_wine%>% 
  select(price, points, country, title) %>%
  filter(country == "US")%>% arrange(desc(points))

## # A tibble: 2,170,356 x 4
##    price points country title                                                   
##    <dbl>  <dbl> <chr>   <chr>                                                   
##  1   200    100 US      Cardinale 2006 Cabernet Sauvignon (Napa Valley)         
##  2    80    100 US      Charles Smith 2006 Royal City Syrah (Columbia Valley (W…
##  3   450    100 US      Verité 2007 La Muse Red (Sonoma County)                 
##  4    80    100 US      Cayuse 2008 Bionic Frog Syrah (Walla Walla Valley (WA)) 
##  5   200    100 US      Cardinale 2006 Cabernet Sauvignon (Napa Valley)         
##  6    80    100 US      Charles Smith 2006 Royal City Syrah (Columbia Valley (W…
##  7   450    100 US      Verité 2007 La Muse Red (Sonoma County)                 
##  8    80    100 US      Cayuse 2008 Bionic Frog Syrah (Walla Walla Valley (WA)) 
##  9   200    100 US      Cardinale 2006 Cabernet Sauvignon (Napa Valley)         
## 10    80    100 US      Charles Smith 2006 Royal City Syrah (Columbia Valley (W…
## # … with 2,170,346 more rows

#best wine by rating in the US 

anime_wine %>% 
  select(members, points, studio) %>%
  group_by(studio)%>%
  summarize(mpoints = mean(points), mmembers = mean(members))%>%
  arrange(desc(mpoints))

## # A tibble: 505 x 3
##    studio                       mpoints mmembers
##    <chr>                          <dbl>    <dbl>
##  1 Magic Bus                       90.9  142410.
##  2 Artland                         90.8  142355.
##  3 Sunrise                         90.1  383935.
##  4 Bandai Namco Pictures           90.0  111491.
##  5 Kyoto Animation                 88.6  595832.
##  6 David Production                88.0  117664.
##  7 Egg Firm                        86.0  168333.
##  8 Sparkly Key Animation Studio    86.0     122.
##  9 Shanghai Motion Magic           85       194 
## 10 Gainax                          85.0  332667.
## # … with 495 more rows
…
#best anime studio by total number of people rating their anime 

anime_wine %>%
  select(price, points, title) %>% 
  group_by(title)%>%
  mutate(priceper = price/points) %>% 
  arrange(priceper)

## # A tibble: 5,134,267 x 4
## # Groups:   title [118,841]
##    price points title                                                   priceper
##    <dbl>  <dbl> <chr>                                                      <dbl>
##  1     4     86 Bandit NV Merlot (California)                             0.0465
##  2     4     86 Cramele Recas 2011 UnWineD Pinot Grigio (Viile Timisul…   0.0465
##  3     4     86 Bandit NV Merlot (California)                             0.0465
##  4     4     86 Cramele Recas 2011 UnWineD Pinot Grigio (Viile Timisul…   0.0465
##  5     4     86 Bandit NV Merlot (California)                             0.0465
##  6     4     86 Cramele Recas 2011 UnWineD Pinot Grigio (Viile Timisul…   0.0465
##  7     4     86 Bandit NV Merlot (California)                             0.0465
##  8     4     86 Cramele Recas 2011 UnWineD Pinot Grigio (Viile Timisul…   0.0465
##  9     4     86 Bandit NV Merlot (California)                             0.0465
## 10     4     86 Cramele Recas 2011 UnWineD Pinot Grigio (Viile Timisul…   0.0465
## # … with 5,134,257 more rows

#most bang for your buck 

anime_wine %>%  
  select(price, points, title) %>% 
  group_by(title)%>%
  mutate(priceper = price/points) %>% 
  arrange(desc(priceper))

## # A tibble: 5,134,267 x 4
## # Groups:   title [118,841]
##    price points title                                                   priceper
##    <dbl>  <dbl> <chr>                                                      <dbl>
##  1  3300     88 Château les Ormes Sorbet 2013  Médoc                        37.5
##  2  3300     88 Château les Ormes Sorbet 2013  Médoc                        37.5
##  3  3300     88 Château les Ormes Sorbet 2013  Médoc                        37.5
##  4  3300     88 Château les Ormes Sorbet 2013  Médoc                        37.5
##  5  3300     88 Château les Ormes Sorbet 2013  Médoc                        37.5
##  6  3300     88 Château les Ormes Sorbet 2013  Médoc                        37.5
##  7  2500     96 Château Pétrus 2014  Pomerol                                26.0
##  8  2500     96 Domaine du Comte Liger-Belair 2010  La Romanée              26.0
##  9  2013     91 Blair 2013 Roger Rose Vineyard Chardonnay (Arroyo Seco)     22.1
## 10  2013     91 Blair 2013 Roger Rose Vineyard Chardonnay (Arroyo Seco)     22.1
## # … with 5,134,257 more rows
…
## # A tibble: 1 x 1
##   `n_distinct(animeID)`
##                   <int>
## 1                 13632

#number of anime in the database that got rated

anime_wine%>% 
  select(points, country) %>%
  group_by(country)%>% 
  summarize(mpoints = mean(points))%>%
  arrange(desc(mpoints))

## # A tibble: 44 x 2
##    country     mpoints
##    <chr>         <dbl>
##  1 England        90.6
##  2 India          90.1
##  3 Luxembourg     89.7
##  4 Germany        89.4
##  5 Austria        89.2
##  6 China          89  
##  7 Canada         88.9
##  8 Morocco        88.8
##  9 Turkey         88.6
## 10 Switzerland    88.5
## # … with 34 more rows

#country with the best average rated wines 

anime_wine%>% 
  select(points, country, title) %>%
  group_by(country, title)%>% 
  summarize(mpoints = mean(points))%>%
  arrange(desc(mpoints))

## # A tibble: 118,841 x 3
## # Groups:   country [44]
##    country title                                                         mpoints
##    <chr>   <chr>                                                           <dbl>
##  1 France  Château Cheval Blanc 2010  Saint-Émilion                          100
##  2 France  Château Lafite Rothschild 2010  Pauillac                          100
##  3 France  Château Léoville Barton 2010  Saint-Julien                        100
##  4 France  Château Léoville Las Cases 2010  Saint-Julien                     100
##  5 France  Krug 2002 Brut  (Champagne)                                       100
##  6 France  Louis Roederer 2008 Cristal Vintage Brut  (Champagne)             100
##  7 France  Salon 2006 Le Mesnil Blanc de Blancs Brut Chardonnay (Champa…     100
##  8 Italy   Avignonesi 1995 Occhio di Pernice  (Vin Santo di Montepulcia…     100
##  9 Italy   Biondi Santi 2010 Riserva  (Brunello di Montalcino)               100
## 10 Italy   Casanova di Neri 2007 Cerretalto  (Brunello di Montalcino)        100
## # … with 118,831 more rows
…
